%YAML 1.1
%TAG !u! tag:unity3d.com,2011:
--- !u!1045 &1
EditorBuildSettings:
  m_ObjectHideFlags: 0
  serializedVersion: 2
  m_Scenes:
  - enabled: 0
    path: Assets/Scenes/Laser Sword.unity
    guid: 7602de2672696477a9f5ad1d39beff40
  - enabled: 1
    path: Assets/Scenes/Laser Sword Blue.unity
    guid: 76ef662100fbc409cbd9044930fef5e0
  m_configObjects: {}
